[gd_scene load_steps=5 format=2]

[ext_resource path="res://assets/blobs/trump.png" type="Texture" id=1]
[ext_resource path="res://components/blobs/blob.gd" type="Script" id=2]
[ext_resource path="res://assets/blobs/sad.png" type="Texture" id=3]

[sub_resource type="StyleBoxFlat" id=1]
bg_color = Color( 0, 0.435294, 0.501961, 1 )
border_width_left = 4
border_width_top = 4
border_width_right = 4
border_width_bottom = 4
border_color = Color( 0.8, 0.8, 0.8, 0 )
corner_radius_top_left = 5
corner_radius_top_right = 5
corner_radius_bottom_right = 5
corner_radius_bottom_left = 5

[node name="blob_unamused" type="Node2D"]
script = ExtResource( 2 )

[node name="sprite" type="Sprite" parent="."]
texture = ExtResource( 1 )

[node name="collision" type="Area2D" parent="."]
collision_layer = 0
collision_mask = 2

[node name="CollisionPolygon2D" type="CollisionPolygon2D" parent="collision"]
polygon = PoolVector2Array( -72.7629, -68.0771, -61.4108, -75.0145, -39.1271, -83.6337, -14.1104, -82.1621, 24.3606, -70.1793, 45.8035, -61.5601, 56.1044, -55.6739, 61.5703, -62.6113, 73.7633, -63.6624, 84.9052, -58.1966, 91.0016, -48.9467, 91.4221, -36.5435, 85.9562, -21.4073, 81.5415, -13.2086, 88.4789, 13.9103, 91.0016, 51.12, 84.2744, 62.6823, 61.5702, 75.9264, 28.7753, 83.074, -11.798, 83.9149, -51.7406, 73.614, -66.6665, 64.9948, -76.547, 48.8075, -91.8934, 38.7167, -92.1036, 23.5806, -85.5866, 20.217, -78.0186, 24.0011, -73.8141, 13.9103, -86.0071, -6.06099, -91.4729, -16.1517, -87.4786, -24.7709, -90.0013, -41.1684, -83.6945, -56.0943 )

[node name="sprite_sad" type="Sprite" parent="."]
position = Vector2( 6.43689, 46.9792 )
texture = ExtResource( 3 )

[node name="LifeBar" type="ProgressBar" parent="."]
anchor_left = 0.5
anchor_top = 0.5
anchor_right = 0.5
anchor_bottom = 0.5
margin_left = -50.0
margin_top = -107.908
margin_right = 50.0
margin_bottom = -92.9083
rect_min_size = Vector2( 100, 10 )
custom_styles/fg = SubResource( 1 )
custom_colors/font_color = Color( 0, 0, 0, 0 )
value = 42.0
rounded = true
allow_lesser = true
__meta__ = {
"_edit_use_anchors_": false
}
[connection signal="body_entered" from="collision" to="." method="_on_collision_body_entered"]
