[gd_scene load_steps=8 format=2]

[ext_resource path="res://assets/covid.png" type="Texture" id=1]
[ext_resource path="res://components/virus_particle/VirusParticle.gd" type="Script" id=2]
[ext_resource path="res://components/virus_particle/Trail.gd" type="Script" id=4]

[sub_resource type="CircleShape2D" id=1]
radius = 12.6302

[sub_resource type="Curve" id=2]
max_value = 3.0
_data = [ Vector2( 0, 0 ), 0.0, 1.4, 0, 0, Vector2( 1, 2.2027 ), 0.0, 0.0, 0, 0 ]

[sub_resource type="CurveTexture" id=3]
curve = SubResource( 2 )

[sub_resource type="ParticlesMaterial" id=4]
lifetime_randomness = 0.18
trail_divisor = 50
trail_size_modifier = SubResource( 3 )
emission_shape = 2
emission_box_extents = Vector3( 1, 10, 1 )
flag_disable_z = true
spread = 3.0
gravity = Vector3( 0, 0, 0 )
initial_velocity = 80.0
initial_velocity_random = 0.1
orbit_velocity = 0.0
orbit_velocity_random = 0.0
linear_accel = -33.33
linear_accel_random = 0.66
radial_accel = 10.34
radial_accel_random = 0.11
color = Color( 0.709804, 0.219608, 0.219608, 0.580392 )

[node name="VirusParticle" type="KinematicBody2D" groups=[
"virus",
]]
collision_layer = 2
script = ExtResource( 2 )

[node name="Sprite" type="Sprite" parent="."]
position = Vector2( 0, -0.190598 )
scale = Vector2( 0.0651872, 0.0651872 )
texture = ExtResource( 1 )

[node name="CollisionShape2D" type="CollisionShape2D" parent="."]
shape = SubResource( 1 )

[node name="Trail" type="Particles2D" parent="."]
z_index = -1
amount = 200
lifetime = 1.4
process_material = SubResource( 4 )
script = ExtResource( 4 )
__meta__ = {
"_editor_description_": ""
}
