[gd_scene load_steps=4 format=2]

[ext_resource path="res://components/center_of_mass/center_of_virus_mass.gd" type="Script" id=1]
[ext_resource path="res://icon.png" type="Texture" id=2]

[sub_resource type="CircleShape2D" id=1]
radius = 0.0

[node name="center_of_virus_mass" type="Position2D"]
script = ExtResource( 1 )

[node name="Sprite for Debug" type="Sprite" parent="."]
visible = false
modulate = Color( 1, 1, 1, 0.254902 )
position = Vector2( -2.86102e-06, 2.38419e-07 )
scale = Vector2( 0.324051, 0.328205 )
texture = ExtResource( 2 )

[node name="Area2D" type="Area2D" parent="."]
collision_layer = 0
collision_mask = 4

[node name="CollisionShape2D" type="CollisionShape2D" parent="Area2D"]
visible = false
shape = SubResource( 1 )
[connection signal="area_entered" from="Area2D" to="." method="_on_Area2D_area_entered"]
[connection signal="area_exited" from="Area2D" to="." method="_on_Area2D_area_exited"]
