[gd_scene load_steps=2 format=2]

[ext_resource path="res://components/virus_spawn/virus_spawn.gd" type="Script" id=1]

[node name="SpawnPoint" type="Position2D"]
position = Vector2( 237.601, 309.683 )
script = ExtResource( 1 )
