; Engine configuration file.
; It's best edited using the editor UI and not directly,
; since the parameters that go here are not all obvious.
;
; Format:
;   [section] ; section goes between []
;   param=value ; assign values to parameters

config_version=4

_global_script_classes=[  ]
_global_script_class_icons={

}

[application]

config/name="Covid, innit?"
run/main_scene="res://components/_root_scenes/news.tscn"
boot_splash/image="res://icon.png"
boot_splash/fullsize=false
boot_splash/use_filter=false
config/icon="res://icon.png"

[autoload]

SceneManager="*res://components/_singletons/scene_manager.gd"
EventManager="*res://components/_singletons/event_manager.gd"
StateManager="*res://components/_singletons/state_manager.gd"

[compression]

formats/zstd/long_distance_matching=true
formats/zstd/compression_level=10

[display]

window/size/width=1920
window/size/height=1080
window/stretch/mode="2d"
window/stretch/aspect="expand"

[importer_defaults]

texture={
"compress/bptc_ldr": 0,
"compress/hdr_mode": 0,
"compress/lossy_quality": 1.0,
"compress/mode": 1,
"compress/normal_map": 0,
"detect_3d": true,
"flags/anisotropic": false,
"flags/filter": true,
"flags/mipmaps": false,
"flags/repeat": 0,
"flags/srgb": 2,
"process/HDR_as_SRGB": false,
"process/fix_alpha_border": true,
"process/invert_color": false,
"process/premult_alpha": false,
"size_limit": 0,
"stream": false,
"svg/scale": 1.0
}

[input]

ui_restart={
"deadzone": 0.5,
"events": [ Object(InputEventKey,"resource_local_to_scene":false,"resource_name":"","device":0,"alt":false,"shift":false,"control":false,"meta":false,"command":false,"pressed":false,"scancode":82,"unicode":0,"echo":false,"script":null)
 ]
}

[layer_names]

2d_physics/layer_1="Physics solids (move&slide)"
2d_physics/layer_2="Virus Particles"
2d_physics/layer_3="Virus Flock Control"

[rendering]

environment/default_environment="res://default_env.tres"
