[gd_scene load_steps=5 format=2]

[ext_resource path="res://components/global_ui/global_ui.tscn" type="PackedScene" id=1]
[ext_resource path="res://components/_root_scenes/world.gd" type="Script" id=2]
[ext_resource path="res://assets/fonts/techna.otf" type="DynamicFontData" id=3]

[sub_resource type="DynamicFont" id=1]
size = 40
outline_size = 2
outline_color = Color( 1, 0, 0, 1 )
font_data = ExtResource( 3 )

[node name="Node2D" type="Node2D"]
script = ExtResource( 2 )

[node name="CanvasLayer" type="CanvasLayer" parent="."]
layer = 10

[node name="UI" parent="CanvasLayer" instance=ExtResource( 1 )]

[node name="BtnContainer" type="MarginContainer" parent="CanvasLayer"]
anchor_left = 1.0
anchor_right = 1.0
margin_left = -164.0
margin_bottom = 70.0
custom_constants/margin_right = 21
custom_constants/margin_top = 21
__meta__ = {
"_edit_use_anchors_": false
}

[node name="Button" type="Button" parent="CanvasLayer/BtnContainer"]
margin_top = 21.0
margin_right = 143.0
margin_bottom = 70.0
custom_fonts/font = SubResource( 1 )
custom_colors/font_color = Color( 1, 0.494118, 0.494118, 1 )
button_mask = 3
text = "Restart"
__meta__ = {
"_edit_use_anchors_": false
}
